{
  "extends": "tslint-config-airbnb",
  "rules": {
    "variable-name": false,
    "max-classes-per-file": [],
    "quotemark": [
      true,
      "single"
    ],
    "ter-indent": 2,
    "curly": false,
    "interface-name": false,
    "object-curly-spacing": true,
    "object-literal-sort-keys": false,
    "ordered-imports": true,
    "max-line-length": [
      true,
      160
    ],
    "no-string-literal": false,
    "strict-boolean-expressions": false, // turn this on when we figure out the error
    "no-boolean-literal-compare": false, // this too

    //new in tslint 5
    "no-unused-expression": true,
    "space-before-function-paren": false,
    "interface-over-type-literal": false,
    "prefer-const": true,
    "no-angle-bracket-type-assertion": false,
    "array-type": false,
    "ban-types": false,
    "unified-signatures": false
  }
}
